{
  "playlists": {
    "href": "https://api.spotify.com/v1/browse/categories/dinner/playlists?country=SE&offset=5&limit=10",
    "items": [
      {
        "collaborative": false,
        "description": "Get jiggy in the kitchen with this groovy playlist.",
        "external_urls": {
          "spotify": "https://open.spotify.com/playlist/37i9dQZF1DX2FsCLsHeMrM"
        },
        "href": "https://api.spotify.com/v1/playlists/37i9dQZF1DX2FsCLsHeMrM",
        "id": "37i9dQZF1DX2FsCLsHeMrM",
        "images": [
          {
            "height": null,
            "url": "https://i.scdn.co/image/ab67706f00000003d5ce097e3b611f9cf4634923",
            "width": null
          }
        ],
        "name": "Kitchen Swagger",
        "owner": {
          "display_name": "Spotify",
          "external_urls": {
            "spotify": "https://open.spotify.com/user/spotify"
          },
          "href": "https://api.spotify.com/v1/users/spotify",
          "id": "spotify",
          "type": "user",
          "uri": "spotify:user:spotify"
        },
        "primary_color": null,
        "public": null,
        "snapshot_id": "MTYzNjcyNjU5NywwMDAwMDAwMGQ0MWQ4Y2Q5OGYwMGIyMDRlOTgwMDk5OGVjZjg0Mjdl",
        "tracks": {
          "href": "https://api.spotify.com/v1/playlists/37i9dQZF1DX2FsCLsHeMrM/tracks",
          "total": 148
        },
        "type": "playlist",
        "uri": "spotify:playlist:37i9dQZF1DX2FsCLsHeMrM"
      },
      {
        "collaborative": false,
        "description": "Dinner music that includes well known and new tracks.",
        "external_urls": {
          "spotify": "https://open.spotify.com/playlist/37i9dQZF1DXatMjChPKgBk"
        },
        "href": "https://api.spotify.com/v1/playlists/37i9dQZF1DXatMjChPKgBk",
        "id": "37i9dQZF1DXatMjChPKgBk",
        "images": [
          {
            "height": null,
            "url": "https://i.scdn.co/image/ab67706f000000035a051b0271d3e98edfdc4c09",
            "width": null
          }
        ],
        "name": "Dinner Music",
        "owner": {
          "display_name": "Spotify",
          "external_urls": {
            "spotify": "https://open.spotify.com/user/spotify"
          },
          "href": "https://api.spotify.com/v1/users/spotify",
          "id": "spotify",
          "type": "user",
          "uri": "spotify:user:spotify"
        },
        "primary_color": null,
        "public": null,
        "snapshot_id": "MTYzNjcyNjYyMywwMDAwMDAwMGQ0MWQ4Y2Q5OGYwMGIyMDRlOTgwMDk5OGVjZjg0Mjdl",
        "tracks": {
          "href": "https://api.spotify.com/v1/playlists/37i9dQZF1DXatMjChPKgBk/tracks",
          "total": 250
        },
        "type": "playlist",
        "uri": "spotify:playlist:37i9dQZF1DXatMjChPKgBk"
      },
      {
        "collaborative": false,
        "description": "Här har du låtarna som skapar en bra stämning vid middagen.",
        "external_urls": {
          "spotify": "https://open.spotify.com/playlist/37i9dQZF1DX6EVq6W95bR5"
        },
        "href": "https://api.spotify.com/v1/playlists/37i9dQZF1DX6EVq6W95bR5",
        "id": "37i9dQZF1DX6EVq6W95bR5",
        "images": [
          {
            "height": null,
            "url": "https://i.scdn.co/image/ab67706f0000000318513efe790bef93b21fdf52",
            "width": null
          }
        ],
        "name": "Middagsmusik",
        "owner": {
          "display_name": "Spotify",
          "external_urls": {
            "spotify": "https://open.spotify.com/user/spotify"
          },
          "href": "https://api.spotify.com/v1/users/spotify",
          "id": "spotify",
          "type": "user",
          "uri": "spotify:user:spotify"
        },
        "primary_color": null,
        "public": null,
        "snapshot_id": "MTYzNjcyNjU5NCwwMDAwMDAwMGQ0MWQ4Y2Q5OGYwMGIyMDRlOTgwMDk5OGVjZjg0Mjdl",
        "tracks": {
          "href": "https://api.spotify.com/v1/playlists/37i9dQZF1DX6EVq6W95bR5/tracks",
          "total": 100
        },
        "type": "playlist",
        "uri": "spotify:playlist:37i9dQZF1DX6EVq6W95bR5"
      },
      {
        "collaborative": false,
        "description": "Enjoy the best Italian dinner of your life. Buon Appetito!",
        "external_urls": {
          "spotify": "https://open.spotify.com/playlist/37i9dQZF1DWT1R6bXL4dyW"
        },
        "href": "https://api.spotify.com/v1/playlists/37i9dQZF1DWT1R6bXL4dyW",
        "id": "37i9dQZF1DWT1R6bXL4dyW",
        "images": [
          {
            "height": null,
            "url": "https://i.scdn.co/image/ab67706f00000003babba615c12964f3de4723d0",
            "width": null
          }
        ],
        "name": "The Perfect Italian Dinner",
        "owner": {
          "display_name": "Spotify",
          "external_urls": {
            "spotify": "https://open.spotify.com/user/spotify"
          },
          "href": "https://api.spotify.com/v1/users/spotify",
          "id": "spotify",
          "type": "user",
          "uri": "spotify:user:spotify"
        },
        "primary_color": null,
        "public": null,
        "snapshot_id": "MTU3MzY2NDA0NCwwMDAwMDAwYzAwMDAwMTZlNjVhZmI0MWMwMDAwMDE2ZDE1MzJiMzMy",
        "tracks": {
          "href": "https://api.spotify.com/v1/playlists/37i9dQZF1DWT1R6bXL4dyW/tracks",
          "total": 44
        },
        "type": "playlist",
        "uri": "spotify:playlist:37i9dQZF1DWT1R6bXL4dyW"
      },
      {
        "collaborative": false,
        "description": "Music to set the mood for a romantic evening.",
        "external_urls": {
          "spotify": "https://open.spotify.com/playlist/37i9dQZF1DX9ZcivJbmcIz"
        },
        "href": "https://api.spotify.com/v1/playlists/37i9dQZF1DX9ZcivJbmcIz",
        "id": "37i9dQZF1DX9ZcivJbmcIz",
        "images": [
          {
            "height": null,
            "url": "https://i.scdn.co/image/ab67706f000000034433aeb75060a0a6c2f695ca",
            "width": null
          }
        ],
        "name": "Candle Light Dinner",
        "owner": {
          "display_name": "Spotify",
          "external_urls": {
            "spotify": "https://open.spotify.com/user/spotify"
          },
          "href": "https://api.spotify.com/v1/users/spotify",
          "id": "spotify",
          "type": "user",
          "uri": "spotify:user:spotify"
        },
        "primary_color": null,
        "public": null,
        "snapshot_id": "MTYzNjcyNjYwNCwwMDAwMDAwMGQ0MWQ4Y2Q5OGYwMGIyMDRlOTgwMDk5OGVjZjg0Mjdl",
        "tracks": {
          "href": "https://api.spotify.com/v1/playlists/37i9dQZF1DX9ZcivJbmcIz/tracks",
          "total": 54
        },
        "type": "playlist",
        "uri": "spotify:playlist:37i9dQZF1DX9ZcivJbmcIz"
      },
      {
        "collaborative": false,
        "description": "Cold beer. Hot wings. Great rock. This is your game day soundtrack.",
        "external_urls": {
          "spotify": "https://open.spotify.com/playlist/37i9dQZF1DXauOWFg72pbl"
        },
        "href": "https://api.spotify.com/v1/playlists/37i9dQZF1DXauOWFg72pbl",
        "id": "37i9dQZF1DXauOWFg72pbl",
        "images": [
          {
            "height": null,
            "url": "https://i.scdn.co/image/ab67706f0000000383de88d62018fc9453c3f0f6",
            "width": null
          }
        ],
        "name": "Beer & Wings",
        "owner": {
          "display_name": "Spotify",
          "external_urls": {
            "spotify": "https://open.spotify.com/user/spotify"
          },
          "href": "https://api.spotify.com/v1/users/spotify",
          "id": "spotify",
          "type": "user",
          "uri": "spotify:user:spotify"
        },
        "primary_color": null,
        "public": null,
        "snapshot_id": "MTYyODc5MDM0MiwwMDAwMDAyYTAwMDAwMTdiM2I3ODQ1MTMwMDAwMDE2ZDAwYmU1ODYw",
        "tracks": {
          "href": "https://api.spotify.com/v1/playlists/37i9dQZF1DXauOWFg72pbl/tracks",
          "total": 90
        },
        "type": "playlist",
        "uri": "spotify:playlist:37i9dQZF1DXauOWFg72pbl"
      },
      {
        "collaborative": false,
        "description": "Soundtrack your dinner with bossa sounds.",
        "external_urls": {
          "spotify": "https://open.spotify.com/playlist/37i9dQZF1DWVleyMkaelTd"
        },
        "href": "https://api.spotify.com/v1/playlists/37i9dQZF1DWVleyMkaelTd",
        "id": "37i9dQZF1DWVleyMkaelTd",
        "images": [
          {
            "height": null,
            "url": "https://i.scdn.co/image/ab67706f000000030491cf2550766cca3304f740",
            "width": null
          }
        ],
        "name": "Bossa Nova Dinner",
        "owner": {
          "display_name": "Spotify",
          "external_urls": {
            "spotify": "https://open.spotify.com/user/spotify"
          },
          "href": "https://api.spotify.com/v1/users/spotify",
          "id": "spotify",
          "type": "user",
          "uri": "spotify:user:spotify"
        },
        "primary_color": null,
        "public": null,
        "snapshot_id": "MTYzNTM0ODk1NiwwMDAwMDAzNjAwMDAwMTdjYzI2NGM2ZmMwMDAwMDE3MTMxOWZlZmFi",
        "tracks": {
          "href": "https://api.spotify.com/v1/playlists/37i9dQZF1DWVleyMkaelTd/tracks",
          "total": 60
        },
        "type": "playlist",
        "uri": "spotify:playlist:37i9dQZF1DWVleyMkaelTd"
      },
      {
        "collaborative": false,
        "description": "Instrumental jazz to set the mood for a relaxed evening.",
        "external_urls": {
          "spotify": "https://open.spotify.com/playlist/37i9dQZF1DWTALrdBtcXjw"
        },
        "href": "https://api.spotify.com/v1/playlists/37i9dQZF1DWTALrdBtcXjw",
        "id": "37i9dQZF1DWTALrdBtcXjw",
        "images": [
          {
            "height": null,
            "url": "https://i.scdn.co/image/ab67706f00000003432b9260fc87afc5fcb09811",
            "width": null
          }
        ],
        "name": "Jazzy Dinner",
        "owner": {
          "display_name": "Spotify",
          "external_urls": {
            "spotify": "https://open.spotify.com/user/spotify"
          },
          "href": "https://api.spotify.com/v1/users/spotify",
          "id": "spotify",
          "type": "user",
          "uri": "spotify:user:spotify"
        },
        "primary_color": null,
        "public": null,
        "snapshot_id": "MTU4NzA5NjA2MCwwMDAwMDAyZTAwMDAwMTcxODY0YzAzMTIwMDAwMDE3MTNiODVmOTU1",
        "tracks": {
          "href": "https://api.spotify.com/v1/playlists/37i9dQZF1DWTALrdBtcXjw/tracks",
          "total": 58
        },
        "type": "playlist",
        "uri": "spotify:playlist:37i9dQZF1DWTALrdBtcXjw"
      },
      {
        "collaborative": false,
        "description": "Swinging jazz for your cocktail party.",
        "external_urls": {
          "spotify": "https://open.spotify.com/playlist/37i9dQZF1DWU6MDxlH7Sr1"
        },
        "href": "https://api.spotify.com/v1/playlists/37i9dQZF1DWU6MDxlH7Sr1",
        "id": "37i9dQZF1DWU6MDxlH7Sr1",
        "images": [
          {
            "height": null,
            "url": "https://i.scdn.co/image/ab67706f00000003129a21d216e316bff529796f",
            "width": null
          }
        ],
        "name": "Cocktail Jazz",
        "owner": {
          "display_name": "Spotify",
          "external_urls": {
            "spotify": "https://open.spotify.com/user/spotify"
          },
          "href": "https://api.spotify.com/v1/users/spotify",
          "id": "spotify",
          "type": "user",
          "uri": "spotify:user:spotify"
        },
        "primary_color": null,
        "public": null,
        "snapshot_id": "MTYzNjYyMDM4OCwwMDAwMDA1YzAwMDAwMTdkMGUyZDQ4NGYwMDAwMDE3MGY2Zjk4NzI5",
        "tracks": {
          "href": "https://api.spotify.com/v1/playlists/37i9dQZF1DWU6MDxlH7Sr1/tracks",
          "total": 81
        },
        "type": "playlist",
        "uri": "spotify:playlist:37i9dQZF1DWU6MDxlH7Sr1"
      },
      {
        "collaborative": false,
        "description": "Soft (the quietest of them all), subtle, no words needed. Take a sip and enjoy the music of composers from around the world.",
        "external_urls": {
          "spotify": "https://open.spotify.com/playlist/37i9dQZF1DX3TPMgP3ojGS"
        },
        "href": "https://api.spotify.com/v1/playlists/37i9dQZF1DX3TPMgP3ojGS",
        "id": "37i9dQZF1DX3TPMgP3ojGS",
        "images": [
          {
            "height": null,
            "url": "https://i.scdn.co/image/ab67706f000000038969ca5540aa46cebd9c3198",
            "width": null
          }
        ],
        "name": "Coffee and Piano",
        "owner": {
          "display_name": "Spotify",
          "external_urls": {
            "spotify": "https://open.spotify.com/user/spotify"
          },
          "href": "https://api.spotify.com/v1/users/spotify",
          "id": "spotify",
          "type": "user",
          "uri": "spotify:user:spotify"
        },
        "primary_color": null,
        "public": null,
        "snapshot_id": "MTYzNjcyNjYyMCwwMDAwMDAwMGQ0MWQ4Y2Q5OGYwMGIyMDRlOTgwMDk5OGVjZjg0Mjdl",
        "tracks": {
          "href": "https://api.spotify.com/v1/playlists/37i9dQZF1DX3TPMgP3ojGS/tracks",
          "total": 50
        },
        "type": "playlist",
        "uri": "spotify:playlist:37i9dQZF1DX3TPMgP3ojGS"
      }
    ],
    "limit": 10,
    "next": "https://api.spotify.com/v1/browse/categories/dinner/playlists?country=SE&offset=15&limit=10",
    "offset": 5,
    "previous": "https://api.spotify.com/v1/browse/categories/dinner/playlists?country=SE&offset=0&limit=10",
    "total": 37
  }
}