{
  "categories": {
    "href": "https://api.spotify.com/v1/browse/categories?offset=0&limit=20",
    "items": [
      {
        "href": "https://api.spotify.com/v1/browse/categories/toplists",
        "icons": [
          {
            "height": 275,
            "url": "https://t.scdn.co/media/derived/toplists_11160599e6a04ac5d6f2757f5511778f_0_0_275_275.jpg",
            "width": 275
          }
        ],
        "id": "toplists",
        "name": "Listas de éxitos"
      },
      {
        "href": "https://api.spotify.com/v1/browse/categories/latin",
        "icons": [
          {
            "height": null,
            "url": "https://t.scdn.co/images/26a60378-a374-4cd7-b894-28efa5e154cb.jpg",
            "width": null
          }
        ],
        "id": "latin",
        "name": "Latina"
      },
      {
        "href": "https://api.spotify.com/v1/browse/categories/mood",
        "icons": [
          {
            "height": 274,
            "url": "https://t.scdn.co/media/original/mood-274x274_976986a31ac8c49794cbdc7246fd5ad7_274x274.jpg",
            "width": 274
          }
        ],
        "id": "mood",
        "name": "Estado de ánimo"
      },
      {
        "href": "https://api.spotify.com/v1/browse/categories/pop",
        "icons": [
          {
            "height": 274,
            "url": "https://t.scdn.co/media/derived/pop-274x274_447148649685019f5e2a03a39e78ba52_0_0_274_274.jpg",
            "width": 274
          }
        ],
        "id": "pop",
        "name": "Pop"
      },
      {
        "href": "https://api.spotify.com/v1/browse/categories/flamenco",
        "icons": [
          {
            "height": null,
            "url": "https://t.scdn.co/images/37780cd0347248e38195515fc7ca061a.jpeg",
            "width": null
          }
        ],
        "id": "flamenco",
        "name": "Flamenco"
      },
      {
        "href": "https://api.spotify.com/v1/browse/categories/chill",
        "icons": [
          {
            "height": 274,
            "url": "https://t.scdn.co/media/derived/chill-274x274_4c46374f007813dd10b37e8d8fd35b4b_0_0_274_274.jpg",
            "width": 274
          }
        ],
        "id": "chill",
        "name": "Relax"
      },
      {
        "href": "https://api.spotify.com/v1/browse/categories/rock",
        "icons": [
          {
            "height": 274,
            "url": "https://t.scdn.co/media/derived/rock_9ce79e0a4ef901bbd10494f5b855d3cc_0_0_274_274.jpg",
            "width": 274
          }
        ],
        "id": "rock",
        "name": "Rock"
      },
      {
        "href": "https://api.spotify.com/v1/browse/categories/workout",
        "icons": [
          {
            "height": null,
            "url": "https://t.scdn.co/media/links/workout-274x274.jpg",
            "width": null
          }
        ],
        "id": "workout",
        "name": "Ejercicio"
      },
      {
        "href": "https://api.spotify.com/v1/browse/categories/hiphop",
        "icons": [
          {
            "height": 274,
            "url": "https://t.scdn.co/media/original/hip-274_0a661854d61e29eace5fe63f73495e68_274x274.jpg",
            "width": 274
          }
        ],
        "id": "hiphop",
        "name": "Hip hop"
      },
      {
        "href": "https://api.spotify.com/v1/browse/categories/edm_dance",
        "icons": [
          {
            "height": 274,
            "url": "https://t.scdn.co/media/derived/edm-274x274_0ef612604200a9c14995432994455a6d_0_0_274_274.jpg",
            "width": 274
          }
        ],
        "id": "edm_dance",
        "name": "Dance y electrónica"
      },
      {
        "href": "https://api.spotify.com/v1/browse/categories/focus",
        "icons": [
          {
            "height": 274,
            "url": "https://t.scdn.co/media/original/genre-images-square-274x274_5e50d72b846a198fcd2ca9b3aef5f0c8_274x274.jpg",
            "width": 274
          }
        ],
        "id": "focus",
        "name": "Concentración"
      },
      {
        "href": "https://api.spotify.com/v1/browse/categories/indie_alt",
        "icons": [
          {
            "height": null,
            "url": "https://t.scdn.co/images/fe06caf056474bc58862591cd60b57fc.jpeg",
            "width": null
          }
        ],
        "id": "indie_alt",
        "name": "Indie"
      },
      {
        "href": "https://api.spotify.com/v1/browse/categories/at_home",
        "icons": [
          {
            "height": null,
            "url": "https://t.scdn.co/images/04da469dd7be4dab96659aa1fa9f0ac9.jpeg",
            "width": null
          }
        ],
        "id": "at_home",
        "name": "En casa"
      },
      {
        "href": "https://api.spotify.com/v1/browse/categories/alternative",
        "icons": [
          {
            "height": null,
            "url": "https://t.scdn.co/images/ee9451b3ed474c82b1da8f9b5eafc88f.jpeg",
            "width": null
          }
        ],
        "id": "alternative",
        "name": "Alternativa"
      },
      {
        "href": "https://api.spotify.com/v1/browse/categories/decades",
        "icons": [
          {
            "height": null,
            "url": "https://t.scdn.co/images/b611cf5145764c64b80e91ccd5f357c8",
            "width": null
          }
        ],
        "id": "decades",
        "name": "Décadas"
      },
      {
        "href": "https://api.spotify.com/v1/browse/categories/party",
        "icons": [
          {
            "height": null,
            "url": "https://t.scdn.co/images/7ee6530d5b3c4acc9a0957046bf11d63",
            "width": null
          }
        ],
        "id": "party",
        "name": "Fiesta"
      },
      {
        "href": "https://api.spotify.com/v1/browse/categories/romance",
        "icons": [
          {
            "height": 274,
            "url": "https://t.scdn.co/media/derived/romance-274x274_8100794c94847b6d27858bed6fa4d91b_0_0_274_274.jpg",
            "width": 274
          }
        ],
        "id": "romance",
        "name": "Romance"
      },
      {
        "href": "https://api.spotify.com/v1/browse/categories/roots",
        "icons": [
          {
            "height": null,
            "url": "https://t.scdn.co/images/7fe0f2c9c91f45a3b6bae49d298201a4.jpeg",
            "width": null
          }
        ],
        "id": "roots",
        "name": "Folk y acústica"
      },
      {
        "href": "https://api.spotify.com/v1/browse/categories/in_the_car",
        "icons": [
          {
            "height": null,
            "url": "https://t.scdn.co/images/57017d435c344bb28efba325b7c9e7c6.jpeg",
            "width": null
          }
        ],
        "id": "in_the_car",
        "name": "En el coche"
      },
      {
        "href": "https://api.spotify.com/v1/browse/categories/student",
        "icons": [
          {
            "height": null,
            "url": "https://t.scdn.co/images/67a216e1e07144f889d366fed5c325bc.jpeg",
            "width": null
          }
        ],
        "id": "student",
        "name": "Estudiantes"
      }
    ],
    "limit": 20,
    "next": "https://api.spotify.com/v1/browse/categories?offset=20&limit=20",
    "offset": 0,
    "previous": null,
    "total": 51
  }
}
